Journal (reproducible report)
…
## 
## > library("stringi")
## 
## > bikedata <- read_excel("00_Data/01_bike_sales/01_raw_data/bikes.xlsx")
## 
## > biketbl_1 <- bikedata %>% select(bike.id, model, model.year)
## 
## > biketbl_2 <- bikedata %>% select(1:3)
## 
## > biketbl_3 <- bikedata %>% select(1, contains("model"))
## 
## > model_and_price <- bikedata %>% select("model", "price")
## 
## > bikedata %>% select(contains("category"), everything())
## # A tibble: 231 x 9
##    category  bike.id model model.year frame.material weight price gender url    
##    <chr>       <dbl> <chr>      <dbl> <chr>           <dbl> <dbl> <chr>  <chr>  
##  1 Road - R~    2875 Aero~       2020 carbon           7.6   4579 unisex https:~
##  2 Road - R~    2873 Aero~       2020 carbon           7.27  6919 unisex https:~
##  3 Road - R~    2874 Aero~       2020 carbon           7.1   6429 unisex https:~
##  4 Road - R~    2876 Aero~       2020 carbon           7.73  5069 unisex https:~
##  5 Road - R~    2877 Aero~       2020 carbon           7.83  3609 unisex https:~
##  6 Road - R~    2225 Aero~       2019 carbon           6.8   6139 unisex https:~
##  7 Road - R~    2091 Aero~       2019 carbon           6.8   5359 unisex https:~
##  8 Road - R~    2086 Aero~       2021 carbon           7.6   2629 unisex https:~
##  9 Road - R~    2088 Aero~       2020 carbon           7.3   3699 unisex https:~
## 10 Road - R~    2120 Aero~       2020 carbon           7.2   3219 female https:~
## # ... with 221 more rows
## 
## > mean_price <- bikedata %>% pull(price) %>% mean()
## 
## > char <- bikedata %>% select(where(is.character))
## 
## > numerical <- bikedata %>% select(where(is.numeric))
## 
## > nonnumerical <- bikedata %>% select(!where(is.numeric))
…
